<svg width="46" height="46" viewBox="0 0 46 46" fill="none" xmlns="http://www.w3.org/2000/svg">
<path fill-rule="evenodd" clip-rule="evenodd" d="M23 46C35.7025 46 46 35.7025 46 23C46 10.2975 35.7025 0 23 0C10.2975 0 0 10.2975 0 23C0 35.7025 10.2975 46 23 46Z" fill="#1877F2"/>
<path d="M29.726 26.0568L30.4711 21.065H25.8107V17.8272C25.8107 16.4612 26.4605 15.129 28.5478 15.129H30.668V10.8793C30.668 10.8793 28.7447 10.542 26.9068 10.542C23.0669 10.542 20.5595 12.9333 20.5595 17.2606V21.065H16.293V26.0568H20.5595V38.3337H25.8107V26.0568H29.726Z" fill="white"/>
</svg>
