<svg width="24" height="24" viewBox="0 0 24 24" fill="none" xmlns="http://www.w3.org/2000/svg">
<path opacity="0.16" fill-rule="evenodd" clip-rule="evenodd" d="M3 10C3 5.02944 7.02944 1 12 1C16.9706 1 21 5.02944 21 10C21 11.3676 20.3954 12.8548 19.6214 14.2296C18.8323 15.6311 17.7932 17.0426 16.7744 18.2896C15.7524 19.5403 14.7332 20.6468 13.9708 21.4395C13.589 21.8364 13.2704 22.156 13.0463 22.3773C12.9342 22.4879 12.8457 22.574 12.7847 22.633L12.7142 22.7007L12.6953 22.7187L12.6902 22.7237L12.6887 22.7251C12.6885 22.7252 12.6879 22.7258 12 22C11.3121 22.7258 11.312 22.7257 11.3118 22.7255L11.3098 22.7237L11.3047 22.7187L11.2858 22.7007L11.2153 22.633C11.1543 22.574 11.0658 22.4879 10.9537 22.3773C10.7296 22.156 10.411 21.8364 10.0292 21.4395C9.26685 20.6468 8.24758 19.5403 7.22563 18.2896C6.20676 17.0426 5.16773 15.6311 4.37862 14.2296C3.6046 12.8548 3 11.3676 3 10ZM12 22L11.3118 22.7255C11.6976 23.0911 12.3021 23.0914 12.6879 22.7258L12 22ZM12 20.5956C12.1559 20.4381 12.3339 20.2563 12.5292 20.0531C13.2668 19.2862 14.2476 18.2211 15.2256 17.0241C16.2068 15.8234 17.1677 14.511 17.8786 13.2484C18.6046 11.9589 19 10.8415 19 10C19 6.13401 15.866 3 12 3C8.13401 3 5 6.13401 5 10C5 10.8415 5.3954 11.9589 6.12138 13.2484C6.83227 14.511 7.79324 15.8234 8.77437 17.0241C9.75242 18.2211 10.7332 19.2862 11.4708 20.0531C11.6661 20.2563 11.8441 20.4381 12 20.5956Z" fill="black"/>
</svg>
