<svg width="78" height="128" viewBox="0 0 78 128" fill="none" xmlns="http://www.w3.org/2000/svg">
<path fill-rule="evenodd" clip-rule="evenodd" d="M5.92417 74.5271C5.92417 66.7951 12.1922 60.5271 19.9242 60.5271H59.0634C66.7954 60.5271 73.0634 66.7951 73.0634 74.5271V81.3643H76.0002C77.1047 81.3643 78.0002 82.2597 78.0002 83.3643V102.186C78.0002 103.291 77.1047 104.186 76.0002 104.186H73.0634V114C73.0634 121.732 66.7954 128 59.0634 128H19.9242C12.1922 128 5.92417 121.732 5.92417 114V104.186H2C0.895431 104.186 0 103.291 0 102.186V83.3643C0 82.2598 0.89543 81.3643 2 81.3643H5.92417V74.5271Z" fill="url(#paint0_linear)"/>
<path d="M47.3923 114.109C50.8481 114.109 51.8354 113.116 52.8228 111.132C53.8101 109.147 53.8101 108.155 53.8101 107.163C53.8101 104.682 51.8355 104.186 48.3796 104.186H29.6202C25.1772 104.186 25.1772 106.17 25.1772 107.659V107.659C25.1772 108.155 25.6126 110.022 26.1646 111.132L26.1647 111.132C27.152 113.116 27.6456 114.109 30.1138 114.109H47.3923Z" fill="white"/>
<ellipse cx="38.013" cy="53.5813" rx="7.89873" ry="7.93798" fill="url(#paint1_linear)"/>
<path d="M36.0381 28.7752C33.5698 29.7674 33.5698 31.7519 33.5698 32.7442V39.1705C33.5698 40.8274 34.9129 42.1705 36.5698 42.1705H39.9495C41.6064 42.1705 42.9495 40.8279 42.9495 39.171V34.2326C53.8103 30.2636 59.2407 24.3101 59.2407 15.876C59.2407 7.44186 50.8483 0 39.0002 0C27.1521 0 21.7217 4.46512 21.7217 6.94574C21.7217 10.9147 24.19 11.907 25.1774 11.907C26.1647 11.907 26.6584 10.9147 27.6457 10.4186C28.6331 9.92248 32.0888 7.93798 37.5191 7.93798C42.9495 7.93798 49.3672 10.9147 49.3672 17.8605C49.3672 24.8062 38.5065 27.7829 36.0381 28.7752Z" fill="url(#paint2_linear)"/>
<path d="M31.8451 57.7035L29.0231 59.476C28.5414 59.7786 28.4076 60.4213 28.7656 60.8634C30.5991 63.128 34.322 66.4805 38.5067 66.4805C42.7117 66.4805 45.9321 63.0956 47.4093 60.8308C47.6965 60.3906 47.5412 59.814 47.0961 59.5345L44.181 57.7035C44.0216 57.6034 43.8373 57.5503 43.6491 57.5503H32.377C32.1888 57.5503 32.0045 57.6034 31.8451 57.7035Z" fill="url(#paint3_linear)"/>
<ellipse cx="56.2785" cy="85.3334" rx="8.88608" ry="8.93023" transform="rotate(-180 56.2785 85.3334)" fill="url(#paint4_linear)"/>
<ellipse cx="56.2785" cy="85.3334" rx="5.92405" ry="5.95349" fill="#232323"/>
<ellipse cx="22.7087" cy="85.3334" rx="8.88608" ry="8.93023" transform="rotate(-180 22.7087 85.3334)" fill="url(#paint5_linear)"/>
<ellipse cx="22.7087" cy="85.3334" rx="5.92405" ry="5.95349" fill="#232323"/>
<path d="M45.7449 97.3075L40.3693 85.7312C40.0163 84.9709 38.9405 84.9564 38.5671 85.707L32.8075 97.2833C32.4768 97.948 32.9603 98.7287 33.7028 98.7287H44.8379C45.5687 98.7287 46.0527 97.9703 45.7449 97.3075Z" fill="#A1E978"/>
<rect x="45.418" y="106.171" width="2.96202" height="5.95349" rx="1.48101" fill="#232323"/>
<rect x="37.519" y="106.171" width="2.96202" height="5.95349" rx="1.48101" fill="#232323"/>
<rect x="29.6206" y="106.171" width="2.96202" height="5.95349" rx="1.48101" fill="#232323"/>
<defs>
<linearGradient id="paint0_linear" x1="66.152" y1="70.4496" x2="25.6915" y2="120.977" gradientUnits="userSpaceOnUse">
<stop stop-color="#CDFF63"/>
<stop offset="1" stop-color="#52B578"/>
</linearGradient>
<linearGradient id="paint1_linear" x1="43.5121" y1="47.978" x2="33.7814" y2="58.4378" gradientUnits="userSpaceOnUse">
<stop stop-color="#CDFF63"/>
<stop offset="1" stop-color="#52B578"/>
</linearGradient>
<linearGradient id="paint2_linear" x1="53.5416" y1="6.20155" x2="27.6473" y2="31.0887" gradientUnits="userSpaceOnUse">
<stop stop-color="#CDFF63"/>
<stop offset="1" stop-color="#52B578"/>
</linearGradient>
<linearGradient id="paint3_linear" x1="44.887" y1="58.8636" x2="40.9774" y2="68.2025" gradientUnits="userSpaceOnUse">
<stop stop-color="#CDFF63"/>
<stop offset="1" stop-color="#52B578"/>
</linearGradient>
<linearGradient id="paint4_linear" x1="62.465" y1="79.0297" x2="51.518" y2="90.797" gradientUnits="userSpaceOnUse">
<stop stop-color="#CDFF63"/>
<stop offset="1" stop-color="#52B578"/>
</linearGradient>
<linearGradient id="paint5_linear" x1="28.8952" y1="79.0297" x2="17.9481" y2="90.797" gradientUnits="userSpaceOnUse">
<stop stop-color="#CDFF63"/>
<stop offset="1" stop-color="#52B578"/>
</linearGradient>
</defs>
</svg>
